{
    "port": 8080,
    "bodyLimit": "100kb",
    "corsHeaders": ["Link"],
    "db_name": "prghub",
    "username": "root",
    "password": "java@123",
    "host": "localhost",
    "dialect": "mysql",
    "alias": false,
    "max_conn": 5,
    "min_conn": 0,
    "idle": 10000
}